{
  "project_info": {
    "project_number": "763187480973",
    "firebase_url": "https://pretty-hub-dev.firebaseio.com",
    "project_id": "pretty-hub-dev",
    "storage_bucket": "pretty-hub-dev.appspot.com"
  },
  "client": [
    {
      "client_info": {
        "mobilesdk_app_id": "1:763187480973:android:0f577840224cd6df4b95c4",
        "android_client_info": {
          "package_name": "com.seventuesday.pretty_client_mobile"
        }
      },
      "oauth_client": [
        {
          "client_id": "763187480973-u3clk73d31blro649crcfja2cs6f3nh9.apps.googleusercontent.com",
          "client_type": 3
        }
      ],
      "api_key": [
        {
          "current_key": "AIzaSyAJ_ICXAHpw6cLIf_7S0MMMQ-mUdpkg0Dg"
        }
      ],
      "services": {
        "appinvite_service": {
          "other_platform_oauth_client": [
            {
              "client_id": "763187480973-u3clk73d31blro649crcfja2cs6f3nh9.apps.googleusercontent.com",
              "client_type": 3
            }
          ]
        }
      }
    }
  ],
  "configuration_version": "1"
}