<svg xmlns="http://www.w3.org/2000/svg" width="17" height="17" viewBox="0 0 17 17">
    <g fill="none" fill-rule="evenodd">
        <circle cx="8.335" cy="8.335" r="8.335" fill="#1C1C1C"/>
        <path fill="#E7C260" fill-rule="nonzero" d="M8.333 16.667A8.333 8.333 0 1 1 8.333 0a8.333 8.333 0 1 1 0 16.667zm0-1.667a6.667 6.667 0 1 0 0-13.333 6.667 6.667 0 0 0 0 13.333zm-.83-3.333L3.967 8.13l1.178-1.179L7.503 9.31l4.713-4.714 1.179 1.178-5.892 5.893z"/>
    </g>
</svg>
