<svg xmlns="http://www.w3.org/2000/svg" width="16" height="21" viewBox="0 0 16 21">
    <g fill="none" fill-rule="evenodd" stroke="#E7C260">
        <path d="M.533 14.867c0 1.496 2.49 3.985 7.467 5.333 4.978-1.43 7.467-3.919 7.467-5.333"/>
        <path stroke-linecap="round" stroke-linejoin="round" d="M.533 2.704C3.2 3.367 6.933 2.274 8 1c1.067 1.274 4.8 2.34 7.467 1.704M15.467 3.133v11.734M.533 3.133v11.734"/>
        <path fill="#E7C260" d="M8 11.483l-2.194 1.604.847-2.583L4.45 8.913l2.719.008L8 6.333l.832 2.588 2.719-.008-2.204 1.591.847 2.583z"/>
    </g>
</svg>
