<svg xmlns="http://www.w3.org/2000/svg" width="20" height="18" viewBox="0 0 20 18">
    <g fill="none" fill-rule="evenodd">
        <path d="M1 0h18v18H1z"/>
        <path fill-rule="nonzero" stroke="#E7C260" stroke-width="2" d="M16.884 9.595l.01.011L10 16.5 3.106 9.606l.01-.01A4.875 4.875 0 0 1 10 2.73a4.875 4.875 0 0 1 6.884 6.865z"/>
    </g>
</svg>
