<svg xmlns="http://www.w3.org/2000/svg" width="22" height="20" viewBox="0 0 22 20">
    <g fill="none" fill-rule="evenodd">
        <path d="M-1-1h24v24H-1z"/>
        <path fill="#525252" fill-rule="nonzero" d="M18 20H4a1 1 0 0 1-1-1v-9H0L10.327.612a1 1 0 0 1 1.346 0L22 10h-3v9a1 1 0 0 1-1 1zM5 18h12V8.157l-6-5.454-6 5.454V18z"/>
    </g>
</svg>
