<svg xmlns="http://www.w3.org/2000/svg" width="65" height="65" viewBox="0 0 65 65">
    <g fill="none" fill-rule="evenodd">
        <circle cx="32.5" cy="32.5" r="31.5" stroke="#E7C260" stroke-width="2"/>
        <path d="M15 15h35v35H15z"/>
        <path fill="#E7C260" fill-rule="nonzero" d="M23.5 27v-1.429c0-4.733 4.03-8.571 9-8.571s9 3.838 9 8.571V27h3c.828 0 1.5.64 1.5 1.429V45.57c0 .79-.672 1.429-1.5 1.429h-24c-.828 0-1.5-.64-1.5-1.429V28.43c0-.79.672-1.429 1.5-1.429h3zM43 29.857H22v14.286h21V29.857zm-12 8.189c-1.176-.647-1.75-1.965-1.398-3.214.352-1.25 1.54-2.118 2.898-2.118s2.546.869 2.898 2.118c.351 1.249-.222 2.567-1.398 3.214v3.24h-3v-3.24zM26.5 27h12v-1.429c0-3.155-2.686-5.714-6-5.714s-6 2.559-6 5.714V27z"/>
    </g>
</svg>
