<svg xmlns="http://www.w3.org/2000/svg" width="20" height="20" viewBox="0 0 20 20">
    <g fill="none" fill-rule="evenodd">
        <path d="M-2-1h24v24H-2z"/>
        <path fill="#525252" fill-rule="nonzero" d="M15 2h4a1 1 0 0 1 1 1v16a1 1 0 0 1-1 1H1a1 1 0 0 1-1-1V3a1 1 0 0 1 1-1h4V0h2v2h6V0h2v2zm-2 2H7v2H5V4H2v4h16V4h-3v2h-2V4zm5 6H2v8h16v-8zM4 13h2v2H4v-2zm4 0h8v2H8v-2z"/>
    </g>
</svg>
