<svg xmlns="http://www.w3.org/2000/svg" width="16" height="21" viewBox="0 0 16 21">
    <g fill="none" fill-rule="evenodd">
        <path d="M-4-1h24v24H-4z"/>
        <path fill="#525252" fill-rule="nonzero" d="M0 21a8 8 0 1 1 16 0h-2a6 6 0 1 0-12 0H0zm8-9c-3.315 0-6-2.685-6-6s2.685-6 6-6 6 2.685 6 6-2.685 6-6 6zm0-2c2.21 0 4-1.79 4-4s-1.79-4-4-4-4 1.79-4 4 1.79 4 4 4z"/>
    </g>
</svg>
