<svg xmlns="http://www.w3.org/2000/svg" width="18" height="18" viewBox="0 0 18 18">
    <g fill="none" fill-rule="evenodd">
        <path d="M-3-3h24v24H-3z"/>
        <path fill="#525252" fill-rule="nonzero" d="M0 14a4 4 0 0 1 4 4H0v-4zm0-7c6.075 0 11 4.925 11 11H9a9 9 0 0 0-9-9V7zm0-7c9.941 0 18 8.059 18 18h-2C16 9.163 8.837 2 0 2V0z"/>
    </g>
</svg>
