<svg xmlns="http://www.w3.org/2000/svg" width="30" height="28" viewBox="0 0 30 28">
    <path fill="#E7C260" fill-rule="evenodd" stroke="#E7C260" d="M109 20.69L100.183 27.135 103.588 16.758 94.734 10.365 105.655 10.397 109 0 112.345 10.397 123.266 10.365 114.412 16.758 117.817 27.135z" transform="translate(-94)"/>
</svg>
